<?xml version="1.0" encoding="utf-8"?>
<!-- Generator: Adobe Illustrator 22.1.0, SVG Export Plug-In . SVG Version: 6.00 Build 0)  -->
<svg version="1.1" id="Modo_de_isolamento" xmlns="http://www.w3.org/2000/svg" xmlns:xlink="http://www.w3.org/1999/xlink" x="0px"
	 y="0px" viewBox="0 0 10.3 11.7" style="enable-background:new 0 0 10.3 11.7;" xml:space="preserve">
<style type="text/css">
	.st0{fill:#f15b08;}
</style>
<path class="st0" d="M9.8,5.1L1.4,0.2C0.6-0.3,0,0.1,0,1l0,9.7c0,0.9,0.6,1.2,1.4,0.8l8.3-4.8C10.5,6.2,10.5,5.5,9.8,5.1L9.8,5.1z"
	/>
</svg>
