<?xml version="1.0" encoding="utf-8"?>
<!-- Generator: Adobe Illustrator 22.1.0, SVG Export Plug-In . SVG Version: 6.00 Build 0)  -->
<svg version="1.1" id="Camada_1" xmlns="http://www.w3.org/2000/svg" xmlns:xlink="http://www.w3.org/1999/xlink" x="0px" y="0px"
	 viewBox="0 0 443 92" style="enable-background:new 0 0 443 92;" xml:space="preserve">
<style type="text/css">
	.st0{fill-rule:evenodd;clip-rule:evenodd;fill:#D67E46;}
	.st1{fill-rule:evenodd;clip-rule:evenodd;fill:#006499;}
	.st2{fill-rule:evenodd;clip-rule:evenodd;fill:#22803E;}
	.st3{fill-rule:evenodd;clip-rule:evenodd;fill:#5A8BB9;}
</style>
<g>
	<path class="st0" d="M56.5,8.1c-14.7-7.2-32.9-4.7-45,7.5C10.2,16.9,9,18.2,8,19.6c3.8-1.9,8.2-2.7,12.8-1.9
		c6.2,1.1,12.8,5,16.4,12.1c1.7,3.3,3.4,6.2,7,8.5c10,6.3,22.1,1.2,24.3-8.3c1.7-7.8-3.2-14.4-9.4-14.8c-2.6-0.2-6.5,0.6-8.4,4.3
		c-1.8,3.5,0.1,7.6,3.1,7.9c0.6,0.1,1.7-0.1,2.3-1c0.8-1.1,0-1.3-0.4-2.3c-0.7-1.8,1.9-2.6,3.4-2c3.7,1.4,3.4,6,1.8,8.5
		c-2.2,3.3-6,3.8-8.8,3.4c-9.3-1.4-13.7-16.6-1.6-23.8C52.2,9,54.3,8.3,56.5,8.1z"/>
	<path class="st1" d="M61.8,75.5c1.8-1.3,3.6-2.7,5.2-4.4c11.3-11.3,14.3-27.7,8.9-41.7c-0.7,6.3-4.9,12.9-11.9,16.5
		c-8,4-12,1.4-18.1,2.7c-16.6,3.6-17.9,25.9-3.5,29.9c2.8,0.8,6.4,0.5,9.1-1.3c3.6-2.3,4.7-5.8,4.5-8.7c-0.7-7.7-10.3-7.6-10-2.9
		c0.1,2.8,2.7,0.4,3.5,2.5c0.9,2.4-3,5.7-7,2.8c-5.5-3.8-3-13.8,5.5-15.4c10-1.9,18.4,9.2,14.2,19.6C61.9,75.3,61.9,75.4,61.8,75.5z
		"/>
	<path class="st2" d="M11.4,71.2c6.4,6.4,14.4,10.1,22.7,11.2c-4.6-3.3-8-8.6-8.8-14.8c-0.4-3.2-0.1-5.7,0.7-9c1-4.1,2.8-5.8,4.5-9
		c3-5.6,2.9-12.9-0.6-18.1c-2.3-3.4-5.4-5.5-8.6-6.4c-12-3.5-20.9,8.9-15.2,17c3.9,5.6,11.1,4.5,12.6-0.2c0.4-1.2,0.2-3.4-1.7-4.1
		c-2.3-0.8-1.5,2.8-4,1.8c-1.9-0.8-1.9-2.9-1.5-4.2c1.9-6.2,13.2-4.9,14.1,4.5c0.7,6.9-5.2,12.6-12.2,13C8.5,53.1,3.1,50.5,0,45.7
		C0.5,55,4.3,64.1,11.4,71.2z"/>
	<path class="st3" d="M262.8,72.5h8.7l0-29.8c0-1.4,0.2-3,0.6-4.4c1.5-4.5,5.6-8.9,11.2-8.9c6.8,0,10.3,5.6,10.4,13.5l0,29.6h8.7
		l0-30.5c0-1.6,0.4-3.2,0.8-4.6c1.5-4.3,5.5-7.9,10.6-7.9c7.2,0,10.7,5.6,10.7,15.2l0,27.9h8.7l0-29.1c0-17.1-9.6-21.4-16.2-21.4
		c-4.7,0-7.9,1.2-10.9,3.5c-2,1.5-4,3.7-5.5,6.4h-0.2c-2.2-5.7-7.3-9.9-14-9.9c-8.3,0-12.9,4.4-15.6,9.1h-0.2l-0.4-8.1h-7.8
		c0.2,4.2,0.4,8.3,0.4,13.4L262.8,72.5L262.8,72.5z M338.4,72.5h8.9L347.2,23h-8.9L338.4,72.5L338.4,72.5z M342.6,14.7
		c3.6,0,5.8-2.5,5.7-5.5c0-3.2-2.2-5.6-5.5-5.6c-3.3,0-5.6,2.6-5.6,5.6C337.2,12.3,339.4,14.7,342.6,14.7L342.6,14.7z M352.8,72.5
		h8.9l0-29.7c0-1.5,0.3-3,0.7-4.2c1.6-5.1,6.1-9.2,12.1-9.2c8.4,0,11.5,6.6,11.5,14.7l0,28.4h8.9l0-29.5c0-16.8-10.6-21-17.4-21
		c-8.2,0-14,4.7-16.4,9.3h-0.3l-0.4-8.3h-7.9c0.2,4.2,0.4,8.3,0.4,13.4L352.8,72.5L352.8,72.5z M396.4,48.5c0,15,9.2,25.1,21.3,25.1
		c8,0,14-4.1,16.6-9.6h0.3l0.4,8.4h7.9c-0.2-3.4-0.4-8.3-0.4-12.7L442.5,0h-8.9l0,29.6h-0.2c-2.3-4-7.4-7.6-14.9-7.6
		C406.5,22,396.3,32.1,396.4,48.5L396.4,48.5z M405.5,48.1c0-10.8,5.5-19,14.8-19c6.7,0,11.7,4.6,13,10.2c0.3,1.3,0.4,2.7,0.4,3.9
		l0,8.6c0,1.4-0.1,2.6-0.4,3.9c-1.7,6.7-7.1,10.8-13.2,10.8C410.4,66.5,405.5,58.1,405.5,48.1z"/>
	<path class="st1" d="M83.7,47.1c0,14.6,10.6,25.7,26.1,25.7c11.7,0,19-7,19-7l-3.9-6.9c0,0-6.1,5.7-14.6,5.7
		c-8.7,0-16.4-5.4-16.9-16.2h35.8c0,0,0.3-2.8,0.3-4.1c0-12.7-7.4-23-21.3-23C94.2,21.3,83.6,31.4,83.7,47.1L83.7,47.1z M93.7,41.3
		c1.4-8.1,7.2-12.5,14.4-12.5c6.3,0,11.6,4.1,11.9,12.5H93.7L93.7,41.3z M129.5,57.8c0,9.8,8.3,15,16.7,15c11.7,0,15.7-9.7,15.7-9.7
		h0.2c0,0-0.2,1.7-0.2,3.9l0,4.7h8.7l0-31.1c0-12.4-7-19.2-19.4-19.2c-11.3,0-18.3,5.8-18.3,5.8l3.9,6.9c0,0,6.1-4.8,13.7-4.8
		c6.2,0,10.8,2.7,10.8,10.8l0,0.9h-2.1C150.9,41,129.5,41.6,129.5,57.8L129.5,57.8z M139,57.4c0-8.8,12.8-9.3,19.9-9.3h2.4l0,1.6
		c0,7.3-5.1,15.6-13.1,15.6C142.2,65.2,139,61.3,139,57.4L139,57.4z M172.4,65.6c0,0,6.6,7.2,18.7,7.2c10.8,0,17.8-6.1,17.8-14.3
		c0-16.1-25.3-14.2-25.3-23c0-4.3,4-6,8.1-6c7.8,0,12.1,4.4,12.1,4.4l3.8-7.1c0,0-5.1-5.4-15.8-5.4c-9.8,0-17.8,5-17.8,14
		c0,16,25.3,14.2,25.3,23.2c0,4-4.1,6.1-8.2,6.1c-8.5,0-14.1-5.7-14.1-5.7L172.4,65.6L172.4,65.6z M208.5,89l3.3-7.2
		c0,0,2.7,2,5.7,2c3.8,0,7-2.7,8.8-7.2l2.4-5.6l-20.6-48.6h10.6l12.4,32.1c1,2.5,1.9,5.9,1.9,5.9h0.2c0,0,0.8-3.3,1.6-5.8l11.9-32.2
		h10.2l-23,58c-3,7.6-9,11.6-15.9,11.6C212.5,92,208.5,89,208.5,89z"/>
</g>
</svg>
